%YAML 1.1
%TAG !u! tag:unity3d.com,2011:
--- !u!74 &7400000
AnimationClip:
  m_ObjectHideFlags: 0
  m_CorrespondingSourceObject: {fileID: 0}
  m_PrefabInstance: {fileID: 0}
  m_PrefabAsset: {fileID: 0}
  m_Name: walk
  serializedVersion: 6
  m_Legacy: 0
  m_Compressed: 0
  m_UseHighQualityCurve: 1
  m_RotationCurves: []
  m_CompressedRotationCurves: []
  m_EulerCurves: []
  m_PositionCurves: []
  m_ScaleCurves: []
  m_FloatCurves: []
  m_PPtrCurves:
  - curve:
    - time: 0
      value: {fileID: -8296385383580801948, guid: 7d54c19da4ce6b6458215044a6b1a9ff,
        type: 3}
    - time: 0.016666668
      value: {fileID: 3218353051568008401, guid: 7d54c19da4ce6b6458215044a6b1a9ff,
        type: 3}
    - time: 0.033333335
      value: {fileID: 6971375644381031630, guid: 7d54c19da4ce6b6458215044a6b1a9ff,
        type: 3}
    - time: 0.05
      value: {fileID: -3714987382563562326, guid: 7d54c19da4ce6b6458215044a6b1a9ff,
        type: 3}
    - time: 0.06666667
      value: {fileID: -2044624726750869082, guid: 7d54c19da4ce6b6458215044a6b1a9ff,
        type: 3}
    - time: 0.083333336
      value: {fileID: -1800561202758830752, guid: 7d54c19da4ce6b6458215044a6b1a9ff,
        type: 3}
    - time: 0.1
      value: {fileID: -7072565547094396234, guid: 7d54c19da4ce6b6458215044a6b1a9ff,
        type: 3}
    - time: 0.11666667
      value: {fileID: -6780060589664581786, guid: 7d54c19da4ce6b6458215044a6b1a9ff,
        type: 3}
    - time: 0.13333334
      value: {fileID: 2251703588619409307, guid: 7d54c19da4ce6b6458215044a6b1a9ff,
        type: 3}
    - time: 0.15
      value: {fileID: -5224373444711448209, guid: 7d54c19da4ce6b6458215044a6b1a9ff,
        type: 3}
    - time: 0.16666667
      value: {fileID: 8428286525173097495, guid: 7d54c19da4ce6b6458215044a6b1a9ff,
        type: 3}
    - time: 0.18333334
      value: {fileID: -2787140197056013511, guid: 7d54c19da4ce6b6458215044a6b1a9ff,
        type: 3}
    - time: 0.2
      value: {fileID: -8260419473583676578, guid: 7d54c19da4ce6b6458215044a6b1a9ff,
        type: 3}
    - time: 0.21666667
      value: {fileID: 6000581766031926614, guid: 7d54c19da4ce6b6458215044a6b1a9ff,
        type: 3}
    - time: 0.23333333
      value: {fileID: -6959915571989194883, guid: 7d54c19da4ce6b6458215044a6b1a9ff,
        type: 3}
    - time: 0.25
      value: {fileID: 960921020097805623, guid: 7d54c19da4ce6b6458215044a6b1a9ff,
        type: 3}
    - time: 0.26666668
      value: {fileID: -3336701548478254045, guid: 7d54c19da4ce6b6458215044a6b1a9ff,
        type: 3}
    - time: 0.28333333
      value: {fileID: -5400053455435091454, guid: 7d54c19da4ce6b6458215044a6b1a9ff,
        type: 3}
    - time: 0.3
      value: {fileID: 4408406346810168619, guid: 7d54c19da4ce6b6458215044a6b1a9ff,
        type: 3}
    - time: 0.31666666
      value: {fileID: -485737157877676475, guid: 7d54c19da4ce6b6458215044a6b1a9ff,
        type: 3}
    - time: 0.33333334
      value: {fileID: -5106187503225981072, guid: 7d54c19da4ce6b6458215044a6b1a9ff,
        type: 3}
    - time: 0.35
      value: {fileID: 4312765686203540801, guid: 7d54c19da4ce6b6458215044a6b1a9ff,
        type: 3}
    - time: 0.36666667
      value: {fileID: 5251978615751408329, guid: 7d54c19da4ce6b6458215044a6b1a9ff,
        type: 3}
    - time: 0.38333333
      value: {fileID: 2965599932687856292, guid: 7d54c19da4ce6b6458215044a6b1a9ff,
        type: 3}
    - time: 0.4
      value: {fileID: 2365076705713957727, guid: 7d54c19da4ce6b6458215044a6b1a9ff,
        type: 3}
    attribute: m_Sprite
    path: CharacterSprite
    classID: 212
    script: {fileID: 0}
  m_SampleRate: 60
  m_WrapMode: 0
  m_Bounds:
    m_Center: {x: 0, y: 0, z: 0}
    m_Extent: {x: 0, y: 0, z: 0}
  m_ClipBindingConstant:
    genericBindings:
    - serializedVersion: 2
      path: 3465527240
      attribute: 0
      script: {fileID: 0}
      typeID: 212
      customType: 23
      isPPtrCurve: 1
    pptrCurveMapping:
    - {fileID: -8296385383580801948, guid: 7d54c19da4ce6b6458215044a6b1a9ff, type: 3}
    - {fileID: 3218353051568008401, guid: 7d54c19da4ce6b6458215044a6b1a9ff, type: 3}
    - {fileID: 6971375644381031630, guid: 7d54c19da4ce6b6458215044a6b1a9ff, type: 3}
    - {fileID: -3714987382563562326, guid: 7d54c19da4ce6b6458215044a6b1a9ff, type: 3}
    - {fileID: -2044624726750869082, guid: 7d54c19da4ce6b6458215044a6b1a9ff, type: 3}
    - {fileID: -1800561202758830752, guid: 7d54c19da4ce6b6458215044a6b1a9ff, type: 3}
    - {fileID: -7072565547094396234, guid: 7d54c19da4ce6b6458215044a6b1a9ff, type: 3}
    - {fileID: -6780060589664581786, guid: 7d54c19da4ce6b6458215044a6b1a9ff, type: 3}
    - {fileID: 2251703588619409307, guid: 7d54c19da4ce6b6458215044a6b1a9ff, type: 3}
    - {fileID: -5224373444711448209, guid: 7d54c19da4ce6b6458215044a6b1a9ff, type: 3}
    - {fileID: 8428286525173097495, guid: 7d54c19da4ce6b6458215044a6b1a9ff, type: 3}
    - {fileID: -2787140197056013511, guid: 7d54c19da4ce6b6458215044a6b1a9ff, type: 3}
    - {fileID: -8260419473583676578, guid: 7d54c19da4ce6b6458215044a6b1a9ff, type: 3}
    - {fileID: 6000581766031926614, guid: 7d54c19da4ce6b6458215044a6b1a9ff, type: 3}
    - {fileID: -6959915571989194883, guid: 7d54c19da4ce6b6458215044a6b1a9ff, type: 3}
    - {fileID: 960921020097805623, guid: 7d54c19da4ce6b6458215044a6b1a9ff, type: 3}
    - {fileID: -3336701548478254045, guid: 7d54c19da4ce6b6458215044a6b1a9ff, type: 3}
    - {fileID: -5400053455435091454, guid: 7d54c19da4ce6b6458215044a6b1a9ff, type: 3}
    - {fileID: 4408406346810168619, guid: 7d54c19da4ce6b6458215044a6b1a9ff, type: 3}
    - {fileID: -485737157877676475, guid: 7d54c19da4ce6b6458215044a6b1a9ff, type: 3}
    - {fileID: -5106187503225981072, guid: 7d54c19da4ce6b6458215044a6b1a9ff, type: 3}
    - {fileID: 4312765686203540801, guid: 7d54c19da4ce6b6458215044a6b1a9ff, type: 3}
    - {fileID: 5251978615751408329, guid: 7d54c19da4ce6b6458215044a6b1a9ff, type: 3}
    - {fileID: 2965599932687856292, guid: 7d54c19da4ce6b6458215044a6b1a9ff, type: 3}
    - {fileID: 2365076705713957727, guid: 7d54c19da4ce6b6458215044a6b1a9ff, type: 3}
  m_AnimationClipSettings:
    serializedVersion: 2
    m_AdditiveReferencePoseClip: {fileID: 0}
    m_AdditiveReferencePoseTime: 0
    m_StartTime: 0
    m_StopTime: 0.4166667
    m_OrientationOffsetY: 0
    m_Level: 0
    m_CycleOffset: 0
    m_HasAdditiveReferencePose: 0
    m_LoopTime: 1
    m_LoopBlend: 0
    m_LoopBlendOrientation: 0
    m_LoopBlendPositionY: 0
    m_LoopBlendPositionXZ: 0
    m_KeepOriginalOrientation: 0
    m_KeepOriginalPositionY: 1
    m_KeepOriginalPositionXZ: 0
    m_HeightFromFeet: 0
    m_Mirror: 0
  m_EditorCurves: []
  m_EulerEditorCurves: []
  m_HasGenericRootTransform: 0
  m_HasMotionFloatCurves: 0
  m_Events: []
